<?xml version="1.0" standalone="no"?>
<!DOCTYPE svg PUBLIC "-//W3C//DTD SVG 20010904//EN" "http://www.w3.org/TR/2001/REC-SVG-20010904/DTD/svg10.dtd">
<!-- Created using Krita: https://krita.org -->
<svg xmlns="http://www.w3.org/2000/svg" 
    xmlns:xlink="http://www.w3.org/1999/xlink"
    xmlns:krita="http://krita.org/namespaces/svg/krita"
    xmlns:sodipodi="http://sodipodi.sourceforge.net/DTD/sodipodi-0.dtd"
    width="184.32pt"
    height="184.32pt"
    viewBox="0 0 184.32 184.32">
<defs>
  <linearGradient id="gradient0" gradientUnits="objectBoundingBox" x1="1" y1="0.498855481294992" x2="-1.11022302462516e-16" y2="0.498827060514693" spreadMethod="pad">
   <stop stop-color="#000000" offset="0" stop-opacity="1"/>
   <stop stop-color="#646464" offset="1" stop-opacity="1"/>
  </linearGradient>
  <linearGradient id="gradient1" gradientUnits="objectBoundingBox" x1="1" y1="0.500469647069183" x2="-2.22044604925031e-16" y2="0.500497935127632" spreadMethod="pad">
   <stop stop-color="#000000" offset="0" stop-opacity="1"/>
   <stop stop-color="#646464" offset="1" stop-opacity="1"/>
  </linearGradient>
  <linearGradient id="gradient2" gradientUnits="objectBoundingBox" x1="1" y1="0.499729999809911" x2="-1.11022302462516e-16" y2="0.498572138963997" spreadMethod="pad">
   <stop stop-color="#000000" offset="0" stop-opacity="1"/>
   <stop stop-color="#646464" offset="1" stop-opacity="1"/>
  </linearGradient>
 </defs>
<rect id="shape0" transform="matrix(0 -0.999999801317883 0.999999801317883 0 14.7288685644697 172.495769008016)" fill="#000000" fill-rule="evenodd" stroke="#000000" stroke-width="0.72" stroke-linecap="square" stroke-linejoin="bevel" width="158.4" height="7.49202533549422" rx="3.74601266774711" ry="3.74601266774711"/><rect id="shape1" transform="matrix(-0.999999801317885 0 0 -0.936928289053155 125.892355274631 56.1517673369565)" fill="url(#gradient0)" fill-rule="evenodd" stroke="#000000" stroke-width="0.72" stroke-linecap="square" stroke-linejoin="bevel" width="86.4" height="28.8" rx="1.70996768632529" ry="1.70996768632529"/><rect id="shape2" transform="matrix(-0.995082910253735 0 0 -0.936928289053151 169.185111733915 106.934473456041)" fill="url(#gradient1)" fill-rule="evenodd" stroke="#000000" stroke-width="0.72" stroke-linecap="square" stroke-linejoin="bevel" width="130.1600285707" height="28.08" rx="1.46972284151559" ry="1.46972284151559"/><rect id="shape3" transform="matrix(-0.999999801317885 0 0 -0.936928289053155 140.66897136041 157.613063957243)" fill="url(#gradient2)" fill-rule="evenodd" stroke="#000000" stroke-width="0.72" stroke-linecap="square" stroke-linejoin="bevel" width="100.8" height="28.08" rx="1.55248448038876" ry="1.55248448038876"/>
</svg>
