<?xml version="1.0" standalone="no"?>
<!DOCTYPE svg PUBLIC "-//W3C//DTD SVG 20010904//EN" "http://www.w3.org/TR/2001/REC-SVG-20010904/DTD/svg10.dtd">
<!-- Created using Krita: https://krita.org -->
<svg xmlns="http://www.w3.org/2000/svg" 
    xmlns:xlink="http://www.w3.org/1999/xlink"
    xmlns:krita="http://krita.org/namespaces/svg/krita"
    xmlns:sodipodi="http://sodipodi.sourceforge.net/DTD/sodipodi-0.dtd"
    width="184.32pt"
    height="184.32pt"
    viewBox="0 0 184.32 184.32">
<defs>
  <linearGradient id="gradient0" gradientUnits="objectBoundingBox" x1="0.499848435287819" y1="0" x2="0.499132591760365" y2="1" spreadMethod="pad">
   <stop stop-color="#000000" offset="0" stop-opacity="1"/>
   <stop stop-color="#646464" offset="1" stop-opacity="1"/>
  </linearGradient>
  <linearGradient id="gradient1" gradientUnits="objectBoundingBox" x1="0.500614640783203" y1="0" x2="0.500309763124392" y2="1" spreadMethod="pad">
   <stop stop-color="#000000" offset="0" stop-opacity="1"/>
   <stop stop-color="#646464" offset="1" stop-opacity="1"/>
  </linearGradient>
  <linearGradient id="gradient2" gradientUnits="objectBoundingBox" x1="0.499107241296082" y1="8.88178419700125e-16" x2="0.500892758703918" y2="1" spreadMethod="pad">
   <stop stop-color="#000000" offset="0" stop-opacity="1"/>
   <stop stop-color="#646464" offset="1" stop-opacity="1"/>
  </linearGradient>
 </defs>
<rect id="shape0" transform="matrix(0.999999801317875 0 0 0.999999801317875 14.3999971389774 25.9252957905364)" fill="#000000" fill-rule="evenodd" stroke="#000000" stroke-width="0.72" stroke-linecap="square" stroke-linejoin="bevel" width="158.4" height="7.49202533549422" rx="3.74601266774711" ry="3.74601266774711"/><rect id="shape1" transform="matrix(0.999999801317875 0 0 0.936928289053147 50.6699901036356 47.9430687846728)" fill="url(#gradient0)" fill-rule="evenodd" stroke="#000000" stroke-width="0.72" stroke-linecap="square" stroke-linejoin="bevel" width="86.4" height="28.8" rx="1.70996768632529" ry="1.70996768632529"/><rect id="shape2" transform="matrix(0.99508291025373 0 0 0.936928289053147 28.8799799711591 90.1855747154866)" fill="url(#gradient1)" fill-rule="evenodd" stroke="#000000" stroke-width="0.72" stroke-linecap="square" stroke-linejoin="bevel" width="130.1600285707" height="28.08" rx="1.46972284151559" ry="1.46972284151559"/><rect id="shape3" transform="matrix(0.999999801317875 0 0 0.936928289053147 43.2899914938959 133.598573860274)" fill="url(#gradient2)" fill-rule="evenodd" stroke="#000000" stroke-width="0.72" stroke-linecap="square" stroke-linejoin="bevel" width="100.8" height="28.08" rx="1.55248448038876" ry="1.55248448038876"/>
</svg>
