<?xml version="1.0" standalone="no"?>
<!DOCTYPE svg PUBLIC "-//W3C//DTD SVG 20010904//EN" "http://www.w3.org/TR/2001/REC-SVG-20010904/DTD/svg10.dtd">
<!-- Created using Krita: https://krita.org -->
<svg xmlns="http://www.w3.org/2000/svg" 
    xmlns:xlink="http://www.w3.org/1999/xlink"
    xmlns:krita="http://krita.org/namespaces/svg/krita"
    xmlns:sodipodi="http://sodipodi.sourceforge.net/DTD/sodipodi-0.dtd"
    width="184.32pt"
    height="184.32pt"
    viewBox="0 0 184.32 184.32">
<defs/>
<path id="shape0" transform="matrix(-1.08302614086695 0 0 1.03923004282161 143.186230809652 53.5526167200953)" fill="none" stroke="#000000" stroke-width="10.8" stroke-linecap="round" stroke-linejoin="bevel" krita:marker-fill-method="auto" d="M82.5153 14.4601C73.2245 4.7732 61.788 8.13545e-16 48.4178 0C21.6774 -1.62709e-15 3.27465e-15 21.5419 0 48.1152C-3.27465e-15 74.6885 21.6774 96.2304 48.4178 96.2304"/><path id="shape1" transform="matrix(-1.08217414300873 -0.0427690150351322 -0.0399306769955745 1.03847011526334 90.5787076187252 35.6952475367797)" fill="none" stroke="#000000" stroke-width="10.8" stroke-linecap="round" stroke-linejoin="bevel" d="M35.4425 0C41.6423 30.838 42.5303 40.3822 41.8399 41.0514C41.1496 41.7206 35.8895 41.7245 0 39.5594"/>
</svg>
