{
  "responses": [
    {
      "code": "0xFE",
      "status": "1",
      "requestID": "0xFE",
      "requestType": "0x01"
    },
    {
      "code": "0x20",
      "status": "1",
      "requestID": "0x20",
      "requestType": "0x01"
    },
    {
      "code": "0x0F",
      "requestType": "0x01",
      "requestID": "0x0F",
      "parameterID": "0"
    },
    {
      "request": "{\n        \"requestType\":\"0x01\",\n        \"requestID\":\"0xFE\"\n        }",
      "code": "sqTWtXs"
    },
    {
      "request": "{\n        \"requestType\":\"0x01\",\n        \"requestID\":\"0x20\"}\n      ",
      "code": "yw6WWcs"
    }
  ]
}
